Rental - Car Type Api: October 10, 2017, 11:12 am
Response: Array
(
    [0] => Array
        (
            [car_type_id] => 2
            [car_type_name] => HATCHBACK
            [car_type_image] => uploads/car/editcar_2.png
            [city_id] => 56
            [base_fare] => 100 Per 4 Miles
            [ride_mode] => 1
            [currency_iso_code] => 0
            [currency_unicode] => 0024
        )

    [1] => Array
        (
            [car_type_id] => 3
            [car_type_name] => LUXURY
            [car_type_image] => uploads/car/editcar_3.png
            [city_id] => 56
            [base_fare] => 100 Per 4 Miles
            [ride_mode] => 1
            [currency_iso_code] => 0
            [currency_unicode] => 0024
        )

    [2] => Array
        (
            [car_type_id] => 4
            [car_type_name] => Mini
            [car_type_image] => uploads/car/editcar_4.png
            [city_id] => 56
            [base_fare] => 178 Per 4 Miles
            [ride_mode] => 1
            [currency_iso_code] => 0
            [currency_unicode] => 0024
        )

)

city_name: Gurugram
latitude: 28.4121357224121
longitude: 77.0432702979285
-------------------------
Rental - Car Type Api: October 10, 2017, 11:38 am
Response: Array
(
    [0] => Array
        (
            [car_type_id] => 2
            [car_type_name] => HATCHBACK
            [car_type_image] => uploads/car/editcar_2.png
            [city_id] => 56
            [base_fare] => 100 Per 4 Miles
            [ride_mode] => 1
            [currency_iso_code] => 0
            [currency_unicode] => 0024
        )

    [1] => Array
        (
            [car_type_id] => 3
            [car_type_name] => LUXURY
            [car_type_image] => uploads/car/editcar_3.png
            [city_id] => 56
            [base_fare] => 100 Per 4 Miles
            [ride_mode] => 1
            [currency_iso_code] => 0
            [currency_unicode] => 0024
        )

    [2] => Array
        (
            [car_type_id] => 4
            [car_type_name] => Mini
            [car_type_image] => uploads/car/editcar_4.png
            [city_id] => 56
            [base_fare] => 178 Per 4 Miles
            [ride_mode] => 1
            [currency_iso_code] => 0
            [currency_unicode] => 0024
        )

)

city_name: Gurugram
latitude: 28.4121216898106
longitude: 77.0434457035374
-------------------------
Rental - Car Type Api: October 10, 2017, 11:48 am
Response: Array
(
    [0] => Array
        (
            [car_type_id] => 2
            [car_type_name] => HATCHBACK
            [car_type_image] => uploads/car/editcar_2.png
            [city_id] => 56
            [base_fare] => 100 Per 4 Miles
            [ride_mode] => 1
            [currency_iso_code] => 0
            [currency_unicode] => 0024
        )

    [1] => Array
        (
            [car_type_id] => 3
            [car_type_name] => LUXURY
            [car_type_image] => uploads/car/editcar_3.png
            [city_id] => 56
            [base_fare] => 100 Per 4 Miles
            [ride_mode] => 1
            [currency_iso_code] => 0
            [currency_unicode] => 0024
        )

    [2] => Array
        (
            [car_type_id] => 4
            [car_type_name] => Mini
            [car_type_image] => uploads/car/editcar_4.png
            [city_id] => 56
            [base_fare] => 178 Per 4 Miles
            [ride_mode] => 1
            [currency_iso_code] => 0
            [currency_unicode] => 0024
        )

)

city_name: Gurugram
latitude: 28.4122468997058
longitude: 77.0435716678175
-------------------------
Rental - Car Type Api: October 10, 2017, 11:50 am
Response: Array
(
    [0] => Array
        (
            [car_type_id] => 2
            [car_type_name] => HATCHBACK
            [car_type_image] => uploads/car/editcar_2.png
            [city_id] => 56
            [base_fare] => 100 Per 4 Miles
            [ride_mode] => 1
            [currency_iso_code] => 0
            [currency_unicode] => 0024
        )

    [1] => Array
        (
            [car_type_id] => 3
            [car_type_name] => LUXURY
            [car_type_image] => uploads/car/editcar_3.png
            [city_id] => 56
            [base_fare] => 100 Per 4 Miles
            [ride_mode] => 1
            [currency_iso_code] => 0
            [currency_unicode] => 0024
        )

    [2] => Array
        (
            [car_type_id] => 4
            [car_type_name] => Mini
            [car_type_image] => uploads/car/editcar_4.png
            [city_id] => 56
            [base_fare] => 178 Per 4 Miles
            [ride_mode] => 1
            [currency_iso_code] => 0
            [currency_unicode] => 0024
        )

)

city_name: Gurugram
latitude: 28.4122468997058
longitude: 77.0435716678175
-------------------------
Rental - Car Type Api: October 10, 2017, 7:37 pm
Response: Array
(
    [0] => Array
        (
            [car_type_id] => 3
            [car_type_name] => LUXURY
            [car_type_image] => uploads/car/editcar_3.png
            [city_id] => 122
            [base_fare] => 100 Per 5 Miles
            [ride_mode] => 1
            [currency_iso_code] => 
            [currency_unicode] => 
        )

    [1] => Array
        (
            [car_type_id] => 4
            [car_type_name] => Mini
            [car_type_image] => uploads/car/editcar_4.png
            [city_id] => 122
            [base_fare] => 50 Per 2 Miles
            [ride_mode] => 1
            [currency_iso_code] => 
            [currency_unicode] => 
        )

    [2] => Array
        (
            [car_type_id] => 2
            [car_type_name] => HATCHBACK
            [car_type_image] => uploads/car/editcar_2.png
            [city_id] => 122
            [base_fare] => 80 Per 4 Miles
            [ride_mode] => 1
            [currency_iso_code] => 
            [currency_unicode] => 
        )

)

city_name: Trenton
latitude: 40.2146418532731
longitude: -74.7604325228136
-------------------------
Rental - Car Type Api: October 10, 2017, 7:37 pm
Response: Array
(
    [0] => Array
        (
            [car_type_id] => 3
            [car_type_name] => LUXURY
            [car_type_image] => uploads/car/editcar_3.png
            [city_id] => 122
            [base_fare] => 100 Per 5 Miles
            [ride_mode] => 1
            [currency_iso_code] => 
            [currency_unicode] => 
        )

    [1] => Array
        (
            [car_type_id] => 4
            [car_type_name] => Mini
            [car_type_image] => uploads/car/editcar_4.png
            [city_id] => 122
            [base_fare] => 50 Per 2 Miles
            [ride_mode] => 1
            [currency_iso_code] => 
            [currency_unicode] => 
        )

    [2] => Array
        (
            [car_type_id] => 2
            [car_type_name] => HATCHBACK
            [car_type_image] => uploads/car/editcar_2.png
            [city_id] => 122
            [base_fare] => 80 Per 4 Miles
            [ride_mode] => 1
            [currency_iso_code] => 
            [currency_unicode] => 
        )

)

city_name: Trenton
latitude: 40.2146250475573
longitude: -74.7604465205919
-------------------------
Rental - Car Type Api: October 10, 2017, 7:37 pm
Response: Array
(
    [0] => Array
        (
            [car_type_id] => 3
            [car_type_name] => LUXURY
            [car_type_image] => uploads/car/editcar_3.png
            [city_id] => 122
            [base_fare] => 100 Per 5 Miles
            [ride_mode] => 1
            [currency_iso_code] => 
            [currency_unicode] => 
        )

    [1] => Array
        (
            [car_type_id] => 4
            [car_type_name] => Mini
            [car_type_image] => uploads/car/editcar_4.png
            [city_id] => 122
            [base_fare] => 50 Per 2 Miles
            [ride_mode] => 1
            [currency_iso_code] => 
            [currency_unicode] => 
        )

    [2] => Array
        (
            [car_type_id] => 2
            [car_type_name] => HATCHBACK
            [car_type_image] => uploads/car/editcar_2.png
            [city_id] => 122
            [base_fare] => 80 Per 4 Miles
            [ride_mode] => 1
            [currency_iso_code] => 
            [currency_unicode] => 
        )

)

city_name: Trenton
latitude: 40.2146064397322
longitude: -74.760454902495
-------------------------
Rental - Car Type Api: October 10, 2017, 11:09 pm
Response: Array
(
    [0] => Array
        (
            [car_type_id] => 3
            [car_type_name] => LUXURY
            [car_type_image] => uploads/car/editcar_3.png
            [city_id] => 122
            [base_fare] => 100 Per 5 Miles
            [ride_mode] => 1
        )

    [1] => Array
        (
            [car_type_id] => 4
            [car_type_name] => Mini
            [car_type_image] => uploads/car/editcar_4.png
            [city_id] => 122
            [base_fare] => 50 Per 2 Miles
            [ride_mode] => 1
        )

    [2] => Array
        (
            [car_type_id] => 2
            [car_type_name] => HATCHBACK
            [car_type_image] => uploads/car/editcar_2.png
            [city_id] => 122
            [base_fare] => 80 Per 4 Miles
            [ride_mode] => 1
        )

)

city_name: Hamilton Township
latitude: 40.2079889690878
longitude: -74.7201999743234
-------------------------
