Rental - Car Type Api: September 28, 2017, 12:54 am
Response: Array
(
    [0] => Array
        (
            [car_type_id] => 2
            [car_type_name] => HATCHBACK
            [car_type_image] => uploads/car/editcar_2.png
            [city_id] => 121
            [base_fare] => 80 Per 3 Km
            [ride_mode] => 1
            [currency_iso_code] => 0
            [currency_unicode] => 0024
        )

    [1] => Array
        (
            [car_type_id] => 3
            [car_type_name] => LUXURY
            [car_type_image] => uploads/car/editcar_3.png
            [city_id] => 121
            [base_fare] => 100 Per 5 Km
            [ride_mode] => 1
            [currency_iso_code] => 0
            [currency_unicode] => 0024
        )

    [2] => Array
        (
            [car_type_id] => 4
            [car_type_name] => Mini
            [car_type_image] => uploads/car/editcar_4.png
            [city_id] => 121
            [base_fare] => 80 Per 2 Km
            [ride_mode] => 1
            [currency_iso_code] => 0
            [currency_unicode] => 0024
        )

)

city_name: Xalapa
latitude: 19.520215274150168
longitude: -96.8640072271228
-------------------------
Rental - Car Type Api: September 28, 2017, 1:07 am
Response: Array
(
    [0] => Array
        (
            [car_type_id] => 2
            [car_type_name] => HATCHBACK
            [car_type_image] => uploads/car/editcar_2.png
            [city_id] => 121
            [base_fare] => 80 Per 3 Km
            [ride_mode] => 1
            [currency_iso_code] => 0
            [currency_unicode] => 0024
        )

    [1] => Array
        (
            [car_type_id] => 3
            [car_type_name] => LUXURY
            [car_type_image] => uploads/car/editcar_3.png
            [city_id] => 121
            [base_fare] => 100 Per 5 Km
            [ride_mode] => 1
            [currency_iso_code] => 0
            [currency_unicode] => 0024
        )

    [2] => Array
        (
            [car_type_id] => 4
            [car_type_name] => Mini
            [car_type_image] => uploads/car/editcar_4.png
            [city_id] => 121
            [base_fare] => 80 Per 2 Km
            [ride_mode] => 1
            [currency_iso_code] => 0
            [currency_unicode] => 0024
        )

)

city_name: Xalapa
latitude: 19.520215274150168
longitude: -96.8640072271228
-------------------------
Rental - Car Type Api: September 28, 2017, 1:24 am
Response: Array
(
    [0] => Array
        (
            [car_type_id] => 2
            [car_type_name] => HATCHBACK
            [car_type_image] => uploads/car/editcar_2.png
            [city_id] => 121
            [base_fare] => 80 Per 3 Km
            [ride_mode] => 1
            [currency_iso_code] => 0
            [currency_unicode] => 0024
        )

    [1] => Array
        (
            [car_type_id] => 3
            [car_type_name] => LUXURY
            [car_type_image] => uploads/car/editcar_3.png
            [city_id] => 121
            [base_fare] => 100 Per 5 Km
            [ride_mode] => 1
            [currency_iso_code] => 0
            [currency_unicode] => 0024
        )

    [2] => Array
        (
            [car_type_id] => 4
            [car_type_name] => Mini
            [car_type_image] => uploads/car/editcar_4.png
            [city_id] => 121
            [base_fare] => 80 Per 2 Km
            [ride_mode] => 1
            [currency_iso_code] => 0
            [currency_unicode] => 0024
        )

)

city_name: Xalapa
latitude: 19.520215274150168
longitude: -96.8640072271228
-------------------------
Rental - Car Type Api: September 28, 2017, 1:47 am
Response: Array
(
    [0] => Array
        (
            [car_type_id] => 2
            [car_type_name] => HATCHBACK
            [car_type_image] => uploads/car/editcar_2.png
            [city_id] => 121
            [base_fare] => 80 Per 3 Km
            [ride_mode] => 1
            [currency_iso_code] => 0
            [currency_unicode] => 0024
        )

    [1] => Array
        (
            [car_type_id] => 3
            [car_type_name] => LUXURY
            [car_type_image] => uploads/car/editcar_3.png
            [city_id] => 121
            [base_fare] => 100 Per 5 Km
            [ride_mode] => 1
            [currency_iso_code] => 0
            [currency_unicode] => 0024
        )

    [2] => Array
        (
            [car_type_id] => 4
            [car_type_name] => Mini
            [car_type_image] => uploads/car/editcar_4.png
            [city_id] => 121
            [base_fare] => 80 Per 2 Km
            [ride_mode] => 1
            [currency_iso_code] => 0
            [currency_unicode] => 0024
        )

)

city_name: Xalapa
latitude: 19.520207058002246
longitude: -96.86396766453981
-------------------------
Rental - Car Type Api: September 28, 2017, 1:48 am
Response: Array
(
    [0] => Array
        (
            [car_type_id] => 2
            [car_type_name] => HATCHBACK
            [car_type_image] => uploads/car/editcar_2.png
            [city_id] => 121
            [base_fare] => 80 Per 3 Km
            [ride_mode] => 1
            [currency_iso_code] => 0
            [currency_unicode] => 0024
        )

    [1] => Array
        (
            [car_type_id] => 3
            [car_type_name] => LUXURY
            [car_type_image] => uploads/car/editcar_3.png
            [city_id] => 121
            [base_fare] => 100 Per 5 Km
            [ride_mode] => 1
            [currency_iso_code] => 0
            [currency_unicode] => 0024
        )

    [2] => Array
        (
            [car_type_id] => 4
            [car_type_name] => Mini
            [car_type_image] => uploads/car/editcar_4.png
            [city_id] => 121
            [base_fare] => 80 Per 2 Km
            [ride_mode] => 1
            [currency_iso_code] => 0
            [currency_unicode] => 0024
        )

)

city_name: Xalapa
latitude: 19.520215274150168
longitude: -96.8640072271228
-------------------------
Rental - Car Type Api: September 28, 2017, 6:19 am
Response: Array
(
    [0] => Array
        (
            [car_type_id] => 2
            [car_type_name] => HATCHBACK
            [car_type_image] => uploads/car/editcar_2.png
            [city_id] => 121
            [base_fare] => 80 Per 3 Km
            [ride_mode] => 1
            [currency_iso_code] => 0
            [currency_unicode] => 0024
        )

    [1] => Array
        (
            [car_type_id] => 3
            [car_type_name] => LUXURY
            [car_type_image] => uploads/car/editcar_3.png
            [city_id] => 121
            [base_fare] => 100 Per 5 Km
            [ride_mode] => 1
            [currency_iso_code] => 0
            [currency_unicode] => 0024
        )

    [2] => Array
        (
            [car_type_id] => 4
            [car_type_name] => Mini
            [car_type_image] => uploads/car/editcar_4.png
            [city_id] => 121
            [base_fare] => 80 Per 2 Km
            [ride_mode] => 1
            [currency_iso_code] => 0
            [currency_unicode] => 0024
        )

)

city_name: Xalapa
latitude: 19.520215274150168
longitude: -96.8640072271228
-------------------------
Rental - Car Type Api: September 28, 2017, 7:25 am
Response: Array
(
    [0] => Array
        (
            [car_type_id] => 2
            [car_type_name] => HATCHBACK
            [car_type_image] => uploads/car/editcar_2.png
            [city_id] => 121
            [base_fare] => 80 Per 3 Km
            [ride_mode] => 1
            [currency_iso_code] => 0
            [currency_unicode] => 0024
        )

    [1] => Array
        (
            [car_type_id] => 3
            [car_type_name] => LUXURY
            [car_type_image] => uploads/car/editcar_3.png
            [city_id] => 121
            [base_fare] => 100 Per 5 Km
            [ride_mode] => 1
            [currency_iso_code] => 0
            [currency_unicode] => 0024
        )

    [2] => Array
        (
            [car_type_id] => 4
            [car_type_name] => Mini
            [car_type_image] => uploads/car/editcar_4.png
            [city_id] => 121
            [base_fare] => 80 Per 2 Km
            [ride_mode] => 1
            [currency_iso_code] => 0
            [currency_unicode] => 0024
        )

)

city_name: Xalapa
latitude: 19.520215274150168
longitude: -96.8640072271228
-------------------------
Rental - Car Type Api: September 28, 2017, 7:33 am
Response: Array
(
    [0] => Array
        (
            [car_type_id] => 2
            [car_type_name] => HATCHBACK
            [car_type_image] => uploads/car/editcar_2.png
            [city_id] => 121
            [base_fare] => 80 Per 3 Km
            [ride_mode] => 1
            [currency_iso_code] => 0
            [currency_unicode] => 0024
        )

    [1] => Array
        (
            [car_type_id] => 3
            [car_type_name] => LUXURY
            [car_type_image] => uploads/car/editcar_3.png
            [city_id] => 121
            [base_fare] => 100 Per 5 Km
            [ride_mode] => 1
            [currency_iso_code] => 0
            [currency_unicode] => 0024
        )

    [2] => Array
        (
            [car_type_id] => 4
            [car_type_name] => Mini
            [car_type_image] => uploads/car/editcar_4.png
            [city_id] => 121
            [base_fare] => 80 Per 2 Km
            [ride_mode] => 1
            [currency_iso_code] => 0
            [currency_unicode] => 0024
        )

)

city_name: Xalapa
latitude: 19.520215274150168
longitude: -96.8640072271228
-------------------------
Rental - Car Type Api: September 28, 2017, 7:42 am
Response: Array
(
    [0] => Array
        (
            [car_type_id] => 2
            [car_type_name] => HATCHBACK
            [car_type_image] => uploads/car/editcar_2.png
            [city_id] => 121
            [base_fare] => 80 Per 3 Km
            [ride_mode] => 1
            [currency_iso_code] => 0
            [currency_unicode] => 0024
        )

    [1] => Array
        (
            [car_type_id] => 3
            [car_type_name] => LUXURY
            [car_type_image] => uploads/car/editcar_3.png
            [city_id] => 121
            [base_fare] => 100 Per 5 Km
            [ride_mode] => 1
            [currency_iso_code] => 0
            [currency_unicode] => 0024
        )

    [2] => Array
        (
            [car_type_id] => 4
            [car_type_name] => Mini
            [car_type_image] => uploads/car/editcar_4.png
            [city_id] => 121
            [base_fare] => 80 Per 2 Km
            [ride_mode] => 1
            [currency_iso_code] => 0
            [currency_unicode] => 0024
        )

)

city_name: Xalapa
latitude: 19.52022601834298
longitude: -96.86399314552547
-------------------------
Rental - Car Type Api: September 28, 2017, 7:44 am
Response: Array
(
    [0] => Array
        (
            [car_type_id] => 2
            [car_type_name] => HATCHBACK
            [car_type_image] => uploads/car/editcar_2.png
            [city_id] => 121
            [base_fare] => 80 Per 3 Km
            [ride_mode] => 1
            [currency_iso_code] => 0
            [currency_unicode] => 0024
        )

    [1] => Array
        (
            [car_type_id] => 3
            [car_type_name] => LUXURY
            [car_type_image] => uploads/car/editcar_3.png
            [city_id] => 121
            [base_fare] => 100 Per 5 Km
            [ride_mode] => 1
            [currency_iso_code] => 0
            [currency_unicode] => 0024
        )

    [2] => Array
        (
            [car_type_id] => 4
            [car_type_name] => Mini
            [car_type_image] => uploads/car/editcar_4.png
            [city_id] => 121
            [base_fare] => 80 Per 2 Km
            [ride_mode] => 1
            [currency_iso_code] => 0
            [currency_unicode] => 0024
        )

)

city_name: Xalapa
latitude: 19.520215274150168
longitude: -96.8640072271228
-------------------------
Rental - Car Type Api: September 28, 2017, 7:47 am
Response: Array
(
    [0] => Array
        (
            [car_type_id] => 2
            [car_type_name] => HATCHBACK
            [car_type_image] => uploads/car/editcar_2.png
            [city_id] => 121
            [base_fare] => 80 Per 3 Km
            [ride_mode] => 1
            [currency_iso_code] => 0
            [currency_unicode] => 0024
        )

    [1] => Array
        (
            [car_type_id] => 3
            [car_type_name] => LUXURY
            [car_type_image] => uploads/car/editcar_3.png
            [city_id] => 121
            [base_fare] => 100 Per 5 Km
            [ride_mode] => 1
            [currency_iso_code] => 0
            [currency_unicode] => 0024
        )

    [2] => Array
        (
            [car_type_id] => 4
            [car_type_name] => Mini
            [car_type_image] => uploads/car/editcar_4.png
            [city_id] => 121
            [base_fare] => 80 Per 2 Km
            [ride_mode] => 1
            [currency_iso_code] => 0
            [currency_unicode] => 0024
        )

)

city_name: Xalapa
latitude: 19.520215274150168
longitude: -96.8640072271228
-------------------------
Rental - Car Type Api: September 28, 2017, 7:53 am
Response: Array
(
    [0] => Array
        (
            [car_type_id] => 2
            [car_type_name] => HATCHBACK
            [car_type_image] => uploads/car/editcar_2.png
            [city_id] => 121
            [base_fare] => 80 Per 3 Km
            [ride_mode] => 1
            [currency_iso_code] => 0
            [currency_unicode] => 0024
        )

    [1] => Array
        (
            [car_type_id] => 3
            [car_type_name] => LUXURY
            [car_type_image] => uploads/car/editcar_3.png
            [city_id] => 121
            [base_fare] => 100 Per 5 Km
            [ride_mode] => 1
            [currency_iso_code] => 0
            [currency_unicode] => 0024
        )

    [2] => Array
        (
            [car_type_id] => 4
            [car_type_name] => Mini
            [car_type_image] => uploads/car/editcar_4.png
            [city_id] => 121
            [base_fare] => 80 Per 2 Km
            [ride_mode] => 1
            [currency_iso_code] => 0
            [currency_unicode] => 0024
        )

)

city_name: Xalapa
latitude: 19.520215274150168
longitude: -96.8640072271228
-------------------------
Rental - Car Type Api: September 28, 2017, 7:57 am
Response: Array
(
    [0] => Array
        (
            [car_type_id] => 2
            [car_type_name] => HATCHBACK
            [car_type_image] => uploads/car/editcar_2.png
            [city_id] => 121
            [base_fare] => 80 Per 3 Km
            [ride_mode] => 1
            [currency_iso_code] => 0
            [currency_unicode] => 0024
        )

    [1] => Array
        (
            [car_type_id] => 3
            [car_type_name] => LUXURY
            [car_type_image] => uploads/car/editcar_3.png
            [city_id] => 121
            [base_fare] => 100 Per 5 Km
            [ride_mode] => 1
            [currency_iso_code] => 0
            [currency_unicode] => 0024
        )

    [2] => Array
        (
            [car_type_id] => 4
            [car_type_name] => Mini
            [car_type_image] => uploads/car/editcar_4.png
            [city_id] => 121
            [base_fare] => 80 Per 2 Km
            [ride_mode] => 1
            [currency_iso_code] => 0
            [currency_unicode] => 0024
        )

)

city_name: Xalapa
latitude: 19.52019820984248
longitude: -96.86399247497319
-------------------------
Rental - Car Type Api: September 28, 2017, 1:06 pm
Response: Array
(
    [0] => Array
        (
            [car_type_id] => 2
            [car_type_name] => HATCHBACK
            [car_type_image] => uploads/car/editcar_2.png
            [city_id] => 56
            [base_fare] => 100 Per 4 Miles
            [ride_mode] => 1
            [currency_iso_code] => 0
            [currency_unicode] => 0024
        )

    [1] => Array
        (
            [car_type_id] => 3
            [car_type_name] => LUXURY
            [car_type_image] => uploads/car/editcar_3.png
            [city_id] => 56
            [base_fare] => 100 Per 4 Miles
            [ride_mode] => 1
            [currency_iso_code] => 0
            [currency_unicode] => 0024
        )

    [2] => Array
        (
            [car_type_id] => 4
            [car_type_name] => Mini
            [car_type_image] => uploads/car/editcar_4.png
            [city_id] => 56
            [base_fare] => 178 Per 4 Miles
            [ride_mode] => 1
            [currency_iso_code] => 0
            [currency_unicode] => 0024
        )

)

city_name: Gurugram
latitude: 28.41206131561626
longitude: 77.0434596017003
-------------------------
Rental - Car Type Api: September 28, 2017, 1:13 pm
Response: Array
(
    [0] => Array
        (
            [car_type_id] => 2
            [car_type_name] => HATCHBACK
            [car_type_image] => uploads/car/editcar_2.png
            [city_id] => 56
            [base_fare] => 100 Per 4 Miles
            [ride_mode] => 1
            [currency_iso_code] => 0
            [currency_unicode] => 0024
        )

    [1] => Array
        (
            [car_type_id] => 3
            [car_type_name] => LUXURY
            [car_type_image] => uploads/car/editcar_3.png
            [city_id] => 56
            [base_fare] => 100 Per 4 Miles
            [ride_mode] => 1
            [currency_iso_code] => 0
            [currency_unicode] => 0024
        )

    [2] => Array
        (
            [car_type_id] => 4
            [car_type_name] => Mini
            [car_type_image] => uploads/car/editcar_4.png
            [city_id] => 56
            [base_fare] => 178 Per 4 Miles
            [ride_mode] => 1
            [currency_iso_code] => 0
            [currency_unicode] => 0024
        )

)

city_name: Gurugram
latitude: 28.412203748158923
longitude: 77.04317595809698
-------------------------
