car by city api -: September 29, 2017, 9:29 pm
Response: {"result":1,"msg":[{"car_type_id":"2","car_type_name":"HATCHBACK","car_name_arabic":"","car_type_name_french":"HATCHBACK","car_type_image":"uploads\/car\/editcar_2.png","cartype_image_size":"webstatic\/img\/fleet-image\/prime-play.png","ride_mode":"1","car_admin_status":"1","city_id":"56"},{"car_type_id":"3","car_type_name":"LUXURY","car_name_arabic":"","car_type_name_french":"LUXURY","car_type_image":"uploads\/car\/editcar_3.png","cartype_image_size":"webstatic\/img\/fleet-image\/lux.png","ride_mode":"1","car_admin_status":"1","city_id":"56"},{"car_type_id":"4","car_type_name":"Mini","car_name_arabic":"","car_type_name_french":"Mini","car_type_image":"uploads\/car\/editcar_4.png","cartype_image_size":"webstatic\/img\/fleet-image\/mini.png","ride_mode":"1","car_admin_status":"1","city_id":"56"}]}
city_id: 56
-------------------------
car by city api -: September 29, 2017, 10:03 pm
Response: {"result":1,"msg":[{"car_type_id":"2","car_type_name":"HATCHBACK","car_name_arabic":"","car_type_name_french":"HATCHBACK","car_type_image":"uploads\/car\/editcar_2.png","cartype_image_size":"webstatic\/img\/fleet-image\/prime-play.png","ride_mode":"1","car_admin_status":"1","city_id":"56"},{"car_type_id":"3","car_type_name":"LUXURY","car_name_arabic":"","car_type_name_french":"LUXURY","car_type_image":"uploads\/car\/editcar_3.png","cartype_image_size":"webstatic\/img\/fleet-image\/lux.png","ride_mode":"1","car_admin_status":"1","city_id":"56"},{"car_type_id":"4","car_type_name":"Mini","car_name_arabic":"","car_type_name_french":"Mini","car_type_image":"uploads\/car\/editcar_4.png","cartype_image_size":"webstatic\/img\/fleet-image\/mini.png","ride_mode":"1","car_admin_status":"1","city_id":"56"}]}
city_id: 56
-------------------------
car by city api -: September 29, 2017, 10:07 pm
Response: {"result":1,"msg":[{"car_type_id":"2","car_type_name":"HATCHBACK","car_name_arabic":"","car_type_name_french":"HATCHBACK","car_type_image":"uploads\/car\/editcar_2.png","cartype_image_size":"webstatic\/img\/fleet-image\/prime-play.png","ride_mode":"1","car_admin_status":"1","city_id":"56"},{"car_type_id":"3","car_type_name":"LUXURY","car_name_arabic":"","car_type_name_french":"LUXURY","car_type_image":"uploads\/car\/editcar_3.png","cartype_image_size":"webstatic\/img\/fleet-image\/lux.png","ride_mode":"1","car_admin_status":"1","city_id":"56"},{"car_type_id":"4","car_type_name":"Mini","car_name_arabic":"","car_type_name_french":"Mini","car_type_image":"uploads\/car\/editcar_4.png","cartype_image_size":"webstatic\/img\/fleet-image\/mini.png","ride_mode":"1","car_admin_status":"1","city_id":"56"}]}
city_id: 56
-------------------------
car by city api -: September 29, 2017, 10:07 pm
Response: {"result":1,"msg":[{"car_type_id":"2","car_type_name":"HATCHBACK","car_name_arabic":"","car_type_name_french":"HATCHBACK","car_type_image":"uploads\/car\/editcar_2.png","cartype_image_size":"webstatic\/img\/fleet-image\/prime-play.png","ride_mode":"1","car_admin_status":"1","city_id":"56"},{"car_type_id":"3","car_type_name":"LUXURY","car_name_arabic":"","car_type_name_french":"LUXURY","car_type_image":"uploads\/car\/editcar_3.png","cartype_image_size":"webstatic\/img\/fleet-image\/lux.png","ride_mode":"1","car_admin_status":"1","city_id":"56"},{"car_type_id":"4","car_type_name":"Mini","car_name_arabic":"","car_type_name_french":"Mini","car_type_image":"uploads\/car\/editcar_4.png","cartype_image_size":"webstatic\/img\/fleet-image\/mini.png","ride_mode":"1","car_admin_status":"1","city_id":"56"}]}
city_id: 56
-------------------------
Driver App - Login driver Api: September 29, 2017, 10:12 pm
Response: Array
(
    [driver_id] => 3
    [company_id] => 0
    [commission] => 4
    [driver_name] => pooja
    [driver_email] => pooja@gmail.com
    [driver_phone] => 12536685699
    [driver_image] => uploads/driver/1506521617driver_3.jpg
    [driver_password] => 123456
    [driver_token] => SZN9tJhpybzTCFpn
    [total_payment_eraned] => 96
    [company_payment] => 4
    [driver_payment] => 
    [device_id] => cGzu9zQpVjU:APA91bGk0d1NgaDzv-2K_g6PVmDLP2YfedqxVpFGee4DvZyXYtwfjs0DXlzqRLCDk9SrJmVPYrEZYURMKLJF1KfBBGecdj1kPI5CrSItD9uONBU74dnx5LQxw-W1eIT4a4netJYOQEnE
    [flag] => 2
    [rating] => 3.5
    [car_type_id] => 2
    [car_model_id] => 3
    [car_number] => vH67
    [city_id] => 56
    [register_date] => Wednesday, Sep 27
    [license] => 
    [license_expire] => 
    [rc] => 
    [rc_expire] => 
    [insurance] => 
    [insurance_expire] => 
    [other_docs] => 
    [driver_bank_name] => 
    [driver_account_number] => 
    [total_card_payment] => 0.00
    [total_cash_payment] => 0.00
    [amount_transfer_pending] => 0.00
    [current_lat] => 28.4305453
    [current_long] => 77.0412276
    [current_location] => ----
    [last_update] => 09:28
    [last_update_date] => Friday, Sep 29, 2017
    [completed_rides] => 1
    [reject_rides] => 0
    [cancelled_rides] => 0
    [login_logout] => 1
    [busy] => 0
    [online_offline] => 1
    [detail_status] => 2
    [payment_transfer] => 0
    [verification_date] => 2017-09-27
    [verification_status] => 1
    [unique_number] => 
    [driver_signup_date] => 2017-09-27
    [driver_status_image] => http://www.apporiotaxi.com/superadminpanel/images/icons8-Error-80.png
    [driver_status_message] => your document id in under process, You will be notified very soon
    [total_document_need] => 3
    [driver_admin_status] => 1
    [verfiy_document] => 3
    [city_name] => Gurugram
    [city_latitude] => 
    [city_longitude] => 
    [currency] => &#36;
    [currency_iso_code] => 0
    [currency_unicode] => 0024
    [distance] => KM
    [city_name_arabic] => 
    [city_name_french] => 
    [city_admin_status] => 1
    [car_type_name] => HATCHBACK
    [car_model_name] => Nano
)

driver_email_phone: pooja@gmail.com
driver_password: 123456
-------------------------
