car by city api -: September 28, 2017, 1:50 am
Response: {"result":1,"msg":[{"car_type_id":"2","car_type_name":"HATCHBACK","car_name_arabic":"","car_type_name_french":"HATCHBACK","car_type_image":"uploads\/car\/editcar_2.png","cartype_image_size":"webstatic\/img\/fleet-image\/prime-play.png","ride_mode":"1","car_admin_status":"1","city_id":"121"},{"car_type_id":"3","car_type_name":"LUXURY","car_name_arabic":"","car_type_name_french":"LUXURY","car_type_image":"uploads\/car\/editcar_3.png","cartype_image_size":"webstatic\/img\/fleet-image\/lux.png","ride_mode":"1","car_admin_status":"1","city_id":"121"},{"car_type_id":"4","car_type_name":"Mini","car_name_arabic":"","car_type_name_french":"Mini","car_type_image":"uploads\/car\/editcar_4.png","cartype_image_size":"webstatic\/img\/fleet-image\/mini.png","ride_mode":"1","car_admin_status":"1","city_id":"121"}]}
city_id: 121
-------------------------
Driver App - Login driver Api: September 28, 2017, 2:51 am
Response: Array
(
    [driver_id] => 4
    [company_id] => 0
    [commission] => 10
    [driver_name] => Conductor Android David
    [driver_email] => david@yotaxicab.com
    [driver_phone] => 2281727810
    [driver_image] => 
    [driver_password] => 111111
    [driver_token] => 8mtHG4tKdLPwCo5w
    [total_payment_eraned] => 0
    [company_payment] => 0
    [driver_payment] => 
    [device_id] => 
    [flag] => 0
    [rating] => 
    [car_type_id] => 2
    [car_model_id] => 3
    [car_number] => YHJ1112
    [city_id] => 121
    [register_date] => Wednesday, Sep 27
    [license] => 
    [license_expire] => 
    [rc] => 
    [rc_expire] => 
    [insurance] => 
    [insurance_expire] => 
    [other_docs] => 
    [driver_bank_name] => 
    [driver_account_number] => 
    [total_card_payment] => 0.00
    [total_cash_payment] => 0.00
    [amount_transfer_pending] => 0.00
    [current_lat] => 
    [current_long] => 
    [current_location] => 
    [last_update] => 
    [last_update_date] => 
    [completed_rides] => 0
    [reject_rides] => 0
    [cancelled_rides] => 0
    [login_logout] => 1
    [busy] => 0
    [online_offline] => 0
    [detail_status] => 2
    [payment_transfer] => 0
    [verification_date] => 2017-09-28
    [verification_status] => 1
    [unique_number] => 
    [driver_signup_date] => 2017-09-27
    [driver_status_image] => http://www.apporiotaxi.com/superadminpanel/images/icons8-Error-80.png
    [driver_status_message] => your document id in under process, You will be notified very soon
    [total_document_need] => 3
    [driver_admin_status] => 1
    [verfiy_document] => 3
    [city_name] => Xalapa
    [city_latitude] => 
    [city_longitude] => 
    [currency] => &#36;
    [currency_iso_code] => 0
    [currency_unicode] => 0024
    [distance] => Km
    [city_name_arabic] => 
    [city_name_french] => 
    [city_admin_status] => 1
    [car_type_name] => HATCHBACK
    [car_model_name] => Nano
)

driver_email_phone: david@yotaxicab.com
driver_password: 111111
-------------------------
car by city api -: September 28, 2017, 2:56 am
Response: {"result":0,"msg":"No Nearest Driver"}
drop_lat: 19.5124714
drop_long: -96.87725569999999
drop_location: Americas Square Mall
car_type_id:2
user_id:4
coupon_code :
pickup_lat : 19.520215274150168
pickup_long : -96.8640072271228
pickup_location :Blvd. Europa, Centro, Xalapa Enríquez, Ver., Mexico
payment_option_id :1
card_id :
pem_file :1
-------------------------
car by city api -: September 28, 2017, 2:57 am
Response: {"result":1,"msg":"0","details":{"ride_id":"6","user_id":"4","coupon_code":"","pickup_lat":"19.520215274150168","pickup_long":"-96.8640072271228","pickup_location":"Blvd. Europa, Centro, Xalapa Enr\u00edquez, Ver., Mexico","drop_lat":"19.5124714","drop_long":"-96.87725569999999","drop_location":"Americas Square Mall","ride_date":"Thursday, Sep 28","ride_time":"02:57:16","last_time_stamp":"02:57:16 AM","ride_image":"https:maps.googleapis.com\/maps\/api\/staticmap?center=&zoom=12&size=200x200&maptype=roadmap&markers=color:green|label:S|19.520215274150168,-96.8640072271228&markers=color:red|label:D|19.5124714,-96.87725569999999&key=AIzaSyAIFe17P91Mfez3T6cqk7hfDSyvMO812Z4","later_date":"","later_time":"","driver_id":"0","car_type_id":"2","ride_type":"1","pem_file":"1","ride_status":"1","payment_status":"0","reason_id":"0","payment_option_id":"1","card_id":"0","ride_platform":"1","ride_admin_status":"1","date":"2017-09-28"}}
drop_lat: 19.5124714
drop_long: -96.87725569999999
drop_location: Americas Square Mall
car_type_id:2
user_id:4
coupon_code :
pickup_lat : 19.520215274150168
pickup_long : -96.8640072271228
pickup_location :Blvd. Europa, Centro, Xalapa Enríquez, Ver., Mexico
payment_option_id :1
card_id :
pem_file :1
-------------------------
Ride Accept api -: September 28, 2017, 2:57 am
Response: {"result":1,"msg":"Booking Accepted!!","details":{"ride_id":"6","user_id":"4","coupon_code":"","pickup_lat":"19.520215274150168","pickup_long":"-96.8640072271228","pickup_location":"Blvd. Europa, Centro, Xalapa Enr\u00edquez, Ver., Mexico","drop_lat":"19.5124714","drop_long":"-96.87725569999999","drop_location":"Americas Square Mall","ride_date":"Thursday, Sep 28","ride_time":"02:57:16","last_time_stamp":"02:57:20 AM","ride_image":"https:maps.googleapis.com\/maps\/api\/staticmap?center=&zoom=12&size=200x200&maptype=roadmap&markers=color:green|label:S|19.520215274150168,-96.8640072271228&markers=color:red|label:D|19.5124714,-96.87725569999999&key=AIzaSyAIFe17P91Mfez3T6cqk7hfDSyvMO812Z4","later_date":"","later_time":"","driver_id":"4","car_type_id":"2","ride_type":"1","pem_file":"1","ride_status":"3","payment_status":"0","reason_id":"0","payment_option_id":"1","card_id":"0","ride_platform":"1","ride_admin_status":"1","date":"2017-09-28","user_type":"1","user_name":"Cliente Android David .","user_email":"dr.david.sarmiento@gmail.com","user_phone":"+522281727810","user_password":"111111","user_image":"","device_id":"fQpNkLHGxIM:APA91bFN81DaXYEoU4wxjbRX9gwAmaYbobAK8V6km_TpOvfKO7xOy4KiXjKVR2q46kBNKkFMlJ5RsjqmVTqB5GmPsnhgXOdDPBSZMvKJ-Mi5Vyyd0xKRmTtaxFRsjzYqKsedGKI71Slb","flag":"2","wallet_money":"0","register_date":"Wednesday, Sep 27","referral_code":"","free_rides":"0","referral_code_send":"0","phone_verified":"0","email_verified":"0","password_created":"0","facebook_id":"","facebook_mail":"","facebook_image":"","facebook_firstname":"","facebook_lastname":"","google_id":"","google_name":"","google_mail":"","google_image":"","google_token":"","facebook_token":"","token_created":"0","login_logout":"1","rating":"","user_delete":"0","unique_number":"","user_signup_type":"1","user_signup_date":"2017-09-28","status":"1","car_type_name":"HATCHBACK","car_name_arabic":"","car_type_name_french":"HATCHBACK","car_type_image":"uploads\/car\/editcar_2.png","cartype_image_size":"webstatic\/img\/fleet-image\/prime-play.png","ride_mode":"1","car_admin_status":"1","company_id":"0","commission":"10","driver_name":"Conductor Android David","driver_email":"david@yotaxicab.com","driver_phone":"2281727810","driver_image":"uploads\/driver\/1506563539driver_4.jpg","driver_password":"111111","driver_token":"8mtHG4tKdLPwCo5w","total_payment_eraned":"0","company_payment":"0","driver_payment":"","car_model_id":"3","car_number":"YHJ1112","city_id":"121","license":"","license_expire":"","rc":"","rc_expire":"","insurance":"","insurance_expire":"","other_docs":"","driver_bank_name":"","driver_account_number":"","total_card_payment":"0.00","total_cash_payment":"0.00","amount_transfer_pending":"0.00","current_lat":"19.5202152","current_long":"-96.8640073","current_location":"----","last_update":"02:57","last_update_date":"Thursday, Sep 28, 2017","completed_rides":"0","reject_rides":"0","cancelled_rides":"0","busy":"1","online_offline":"1","detail_status":"2","payment_transfer":"0","verification_date":"2017-09-28","verification_status":"1","driver_signup_date":"2017-09-27","driver_status_image":"http:\/\/www.apporiotaxi.com\/superadminpanel\/images\/icons8-Error-80.png","driver_status_message":"your document id in under process, You will be notified very soon","total_document_need":"3","driver_admin_status":"1","verfiy_document":"3"}}
ride_id: 6
driver_id: 4
driver_token: 8mtHG4tKdLPwCo5w
-------------------------
ride start to road  Api - : September 28, 2017, 2:59 am
ride_id :6
driver_id: 4
begin_lat: 19.5202152
begin_long: -96.8640073
driver_token: 8mtHG4tKdLPwCo5w
-------------------------
ride end Api - : September 28, 2017, 3:00 am
ride_id: 6
driver_id: 4
end_lat: 19.5201719
end_long: -96.8639782
meter_distance: 0.0
lat_long: 
-------------------------
User App-view wallent Api: September 28, 2017, 3:17 am
Response: Array
User: 4
-------------------------
car by city api -: September 28, 2017, 3:26 am
Response: {"result":1,"msg":"0","details":{"ride_id":"7","user_id":"4","coupon_code":"APPORIO","pickup_lat":"19.520215274150168","pickup_long":"-96.8640072271228","pickup_location":"Blvd. Europa, Centro, Xalapa Enr\u00edquez, Ver., Mexico","drop_lat":"19.5124714","drop_long":"-96.87725569999999","drop_location":"Americas Square Mall","ride_date":"Thursday, Sep 28","ride_time":"03:26:30","last_time_stamp":"03:26:30 AM","ride_image":"https:maps.googleapis.com\/maps\/api\/staticmap?center=&zoom=12&size=200x200&maptype=roadmap&markers=color:green|label:S|19.520215274150168,-96.8640072271228&markers=color:red|label:D|19.5124714,-96.87725569999999&key=AIzaSyAIFe17P91Mfez3T6cqk7hfDSyvMO812Z4","later_date":"","later_time":"","driver_id":"0","car_type_id":"2","ride_type":"1","pem_file":"1","ride_status":"1","payment_status":"0","reason_id":"0","payment_option_id":"1","card_id":"0","ride_platform":"1","ride_admin_status":"1","date":"2017-09-28"}}
drop_lat: 19.5124714
drop_long: -96.87725569999999
drop_location: Americas Square Mall
car_type_id:2
user_id:4
coupon_code :APPORIO
pickup_lat : 19.520215274150168
pickup_long : -96.8640072271228
pickup_location :Blvd. Europa, Centro, Xalapa Enríquez, Ver., Mexico
payment_option_id :1
card_id :
pem_file :1
-------------------------
Ride Accept api -: September 28, 2017, 3:26 am
Response: {"result":1,"msg":"Booking Accepted!!","details":{"ride_id":"7","user_id":"4","coupon_code":"APPORIO","pickup_lat":"19.520215274150168","pickup_long":"-96.8640072271228","pickup_location":"Blvd. Europa, Centro, Xalapa Enr\u00edquez, Ver., Mexico","drop_lat":"19.5124714","drop_long":"-96.87725569999999","drop_location":"Americas Square Mall","ride_date":"Thursday, Sep 28","ride_time":"03:26:30","last_time_stamp":"03:26:53 AM","ride_image":"https:maps.googleapis.com\/maps\/api\/staticmap?center=&zoom=12&size=200x200&maptype=roadmap&markers=color:green|label:S|19.520215274150168,-96.8640072271228&markers=color:red|label:D|19.5124714,-96.87725569999999&key=AIzaSyAIFe17P91Mfez3T6cqk7hfDSyvMO812Z4","later_date":"","later_time":"","driver_id":"4","car_type_id":"2","ride_type":"1","pem_file":"1","ride_status":"3","payment_status":"0","reason_id":"0","payment_option_id":"1","card_id":"0","ride_platform":"1","ride_admin_status":"1","date":"2017-09-28","user_type":"1","user_name":"Cliente Android David .","user_email":"dr.david.sarmiento@gmail.com","user_phone":"+522281727810","user_password":"111111","user_image":"http:\/\/apporio.org\/YoTaxi\/yotaxi\/uploads\/1506564776758.jpg","device_id":"fQpNkLHGxIM:APA91bFN81DaXYEoU4wxjbRX9gwAmaYbobAK8V6km_TpOvfKO7xOy4KiXjKVR2q46kBNKkFMlJ5RsjqmVTqB5GmPsnhgXOdDPBSZMvKJ-Mi5Vyyd0xKRmTtaxFRsjzYqKsedGKI71Slb","flag":"2","wallet_money":"0","register_date":"Wednesday, Sep 27","referral_code":"","free_rides":"0","referral_code_send":"0","phone_verified":"0","email_verified":"0","password_created":"0","facebook_id":"","facebook_mail":"","facebook_image":"","facebook_firstname":"","facebook_lastname":"","google_id":"","google_name":"","google_mail":"","google_image":"","google_token":"","facebook_token":"","token_created":"0","login_logout":"1","rating":"","user_delete":"0","unique_number":"","user_signup_type":"1","user_signup_date":"2017-09-28","status":"1","car_type_name":"HATCHBACK","car_name_arabic":"","car_type_name_french":"HATCHBACK","car_type_image":"uploads\/car\/editcar_2.png","cartype_image_size":"webstatic\/img\/fleet-image\/prime-play.png","ride_mode":"1","car_admin_status":"1","company_id":"0","commission":"10","driver_name":"Conductor Android David","driver_email":"david@yotaxicab.com","driver_phone":"2281727810","driver_image":"uploads\/driver\/1506563539driver_4.jpg","driver_password":"111111","driver_token":"8mtHG4tKdLPwCo5w","total_payment_eraned":"72","company_payment":"8","driver_payment":"","car_model_id":"3","car_number":"YHJ1112","city_id":"121","license":"","license_expire":"","rc":"","rc_expire":"","insurance":"","insurance_expire":"","other_docs":"","driver_bank_name":"","driver_account_number":"","total_card_payment":"0.00","total_cash_payment":"0.00","amount_transfer_pending":"0.00","current_lat":"19.5202152","current_long":"-96.8640073","current_location":"----","last_update":"03:26","last_update_date":"Thursday, Sep 28, 2017","completed_rides":"1","reject_rides":"0","cancelled_rides":"0","busy":"1","online_offline":"1","detail_status":"2","payment_transfer":"0","verification_date":"2017-09-28","verification_status":"1","driver_signup_date":"2017-09-27","driver_status_image":"http:\/\/www.apporiotaxi.com\/superadminpanel\/images\/icons8-Error-80.png","driver_status_message":"your document id in under process, You will be notified very soon","total_document_need":"3","driver_admin_status":"1","verfiy_document":"3"}}
ride_id: 7
driver_id: 4
driver_token: 8mtHG4tKdLPwCo5w
-------------------------
car by city api -: September 28, 2017, 8:24 am
Response: {"result":1,"msg":[{"car_type_id":"2","car_type_name":"HATCHBACK","car_name_arabic":"","car_type_name_french":"HATCHBACK","car_type_image":"uploads\/car\/editcar_2.png","cartype_image_size":"webstatic\/img\/fleet-image\/prime-play.png","ride_mode":"1","car_admin_status":"1","city_id":"56"},{"car_type_id":"3","car_type_name":"LUXURY","car_name_arabic":"","car_type_name_french":"LUXURY","car_type_image":"uploads\/car\/editcar_3.png","cartype_image_size":"webstatic\/img\/fleet-image\/lux.png","ride_mode":"1","car_admin_status":"1","city_id":"56"},{"car_type_id":"4","car_type_name":"Mini","car_name_arabic":"","car_type_name_french":"Mini","car_type_image":"uploads\/car\/editcar_4.png","cartype_image_size":"webstatic\/img\/fleet-image\/mini.png","ride_mode":"1","car_admin_status":"1","city_id":"56"}]}
city_id: 56
-------------------------
Driver App - Login driver Api: September 28, 2017, 8:25 am
Response: Array
(
    [driver_id] => 5
    [company_id] => 0
    [commission] => 4
    [driver_name] => ansh
    [driver_email] => ansh@gmail.com
    [driver_phone] => 1231236963
    [driver_image] => 
    [driver_password] => 123456
    [driver_token] => af4IUy2E5HmzC8tg
    [total_payment_eraned] => 0
    [company_payment] => 0
    [driver_payment] => 
    [device_id] => 
    [flag] => 0
    [rating] => 
    [car_type_id] => 2
    [car_model_id] => 3
    [car_number] => tahw718
    [city_id] => 56
    [register_date] => Thursday, Sep 28
    [license] => 
    [license_expire] => 
    [rc] => 
    [rc_expire] => 
    [insurance] => 
    [insurance_expire] => 
    [other_docs] => 
    [driver_bank_name] => 
    [driver_account_number] => 
    [total_card_payment] => 0.00
    [total_cash_payment] => 0.00
    [amount_transfer_pending] => 0.00
    [current_lat] => 
    [current_long] => 
    [current_location] => 
    [last_update] => 
    [last_update_date] => 
    [completed_rides] => 0
    [reject_rides] => 0
    [cancelled_rides] => 0
    [login_logout] => 2
    [busy] => 0
    [online_offline] => 0
    [detail_status] => 3
    [payment_transfer] => 0
    [verification_date] => 
    [verification_status] => 0
    [unique_number] => 
    [driver_signup_date] => 2017-09-28
    [driver_status_image] => http://www.apporiotaxi.com/superadminpanel/images/icons8-Error-80.png
    [driver_status_message] => your document id in under process, You will be notified very soon
    [total_document_need] => 3
    [driver_admin_status] => 1
    [verfiy_document] => 0
    [city_name] => Gurugram
    [city_latitude] => 
    [city_longitude] => 
    [currency] => &#36;
    [currency_iso_code] => 0
    [currency_unicode] => 0024
    [distance] => KM
    [city_name_arabic] => 
    [city_name_french] => 
    [city_admin_status] => 1
    [car_type_name] => HATCHBACK
    [car_model_name] => Nano
)

driver_email_phone: 1231236963
driver_password: 123456
-------------------------
Driver App - Login driver Api: September 28, 2017, 8:27 am
Response: Array
(
    [driver_id] => 5
    [company_id] => 0
    [commission] => 4
    [driver_name] => ansh
    [driver_email] => ansh@gmail.com
    [driver_phone] => 1231236963
    [driver_image] => 
    [driver_password] => 123456
    [driver_token] => gXrVKYUphvepFDPz
    [total_payment_eraned] => 0
    [company_payment] => 0
    [driver_payment] => 
    [device_id] => 
    [flag] => 0
    [rating] => 
    [car_type_id] => 2
    [car_model_id] => 3
    [car_number] => tahw718
    [city_id] => 56
    [register_date] => Thursday, Sep 28
    [license] => 
    [license_expire] => 
    [rc] => 
    [rc_expire] => 
    [insurance] => 
    [insurance_expire] => 
    [other_docs] => 
    [driver_bank_name] => 
    [driver_account_number] => 
    [total_card_payment] => 0.00
    [total_cash_payment] => 0.00
    [amount_transfer_pending] => 0.00
    [current_lat] => 
    [current_long] => 
    [current_location] => 
    [last_update] => 
    [last_update_date] => 
    [completed_rides] => 0
    [reject_rides] => 0
    [cancelled_rides] => 0
    [login_logout] => 1
    [busy] => 0
    [online_offline] => 0
    [detail_status] => 2
    [payment_transfer] => 0
    [verification_date] => 2017-09-28
    [verification_status] => 1
    [unique_number] => 
    [driver_signup_date] => 2017-09-28
    [driver_status_image] => http://www.apporiotaxi.com/superadminpanel/images/icons8-Error-80.png
    [driver_status_message] => your document id in under process, You will be notified very soon
    [total_document_need] => 3
    [driver_admin_status] => 1
    [verfiy_document] => 3
    [city_name] => Gurugram
    [city_latitude] => 
    [city_longitude] => 
    [currency] => &#36;
    [currency_iso_code] => 0
    [currency_unicode] => 0024
    [distance] => KM
    [city_name_arabic] => 
    [city_name_french] => 
    [city_admin_status] => 1
    [car_type_name] => HATCHBACK
    [car_model_name] => Nano
)

driver_email_phone: ansh@gmail.com
driver_password: 123456
-------------------------
car by city api -: September 28, 2017, 8:36 am
Response: {"result":1,"msg":"0.0331566556344","details":{"ride_id":"8","user_id":"5","coupon_code":"","pickup_lat":"28.41206131561626","pickup_long":"77.0434596017003","pickup_location":"68, Plaza St, Block S, Uppal Southend, Sector 49, Gurugram, Haryana 122018, India","drop_lat":"","drop_long":"","drop_location":"Set your drop point","ride_date":"Thursday, Sep 28","ride_time":"08:36:41","last_time_stamp":"08:36:41 AM","ride_image":"https:maps.googleapis.com\/maps\/api\/staticmap?center=&zoom=12&size=200x200&maptype=roadmap&markers=color:green|label:S|28.41206131561626,77.0434596017003&markers=color:red|label:D|,&key=AIzaSyAIFe17P91Mfez3T6cqk7hfDSyvMO812Z4","later_date":"","later_time":"","driver_id":"0","car_type_id":"2","ride_type":"1","pem_file":"1","ride_status":"1","payment_status":"0","reason_id":"0","payment_option_id":"1","card_id":"0","ride_platform":"1","ride_admin_status":"1","date":"2017-09-28"}}
drop_lat: 
drop_long: 
drop_location: Set your drop point
car_type_id:2
user_id:5
coupon_code :
pickup_lat : 28.41206131561626
pickup_long : 77.0434596017003
pickup_location :68, Plaza St, Block S, Uppal Southend, Sector 49, Gurugram, Haryana 122018, India
payment_option_id :1
card_id :
pem_file :1
-------------------------
Ride Accept api -: September 28, 2017, 8:36 am
Response: {"result":1,"msg":"Booking Accepted!!","details":{"ride_id":"8","user_id":"5","coupon_code":"","pickup_lat":"28.41206131561626","pickup_long":"77.0434596017003","pickup_location":"68, Plaza St, Block S, Uppal Southend, Sector 49, Gurugram, Haryana 122018, India","drop_lat":"","drop_long":"","drop_location":"Set your drop point","ride_date":"Thursday, Sep 28","ride_time":"08:36:41","last_time_stamp":"08:36:58 AM","ride_image":"https:maps.googleapis.com\/maps\/api\/staticmap?center=&zoom=12&size=200x200&maptype=roadmap&markers=color:green|label:S|28.41206131561626,77.0434596017003&markers=color:red|label:D|,&key=AIzaSyAIFe17P91Mfez3T6cqk7hfDSyvMO812Z4","later_date":"","later_time":"","driver_id":"5","car_type_id":"2","ride_type":"1","pem_file":"1","ride_status":"3","payment_status":"0","reason_id":"0","payment_option_id":"1","card_id":"0","ride_platform":"1","ride_admin_status":"1","date":"2017-09-28","user_type":"1","user_name":"pooja s .","user_email":"pooja@gmail.com","user_phone":"+915632569856","user_password":"123456","user_image":"","device_id":"emCoBmW_ACE:APA91bGz7Ig5KxxZg_1AW7zLE7A4mtZa4HpSmIztijTjZ_h6rZwS-p95p-LkkiaT6tZSLIlsDiT4XYMWVes61dh5lSBnBANlO8LZbeAw-uVx2Wa1oWP7rR4QkYXblxc6B5u4wzA4V3pi","flag":"2","wallet_money":"0","register_date":"Thursday, Sep 28","referral_code":"","free_rides":"0","referral_code_send":"0","phone_verified":"0","email_verified":"0","password_created":"0","facebook_id":"","facebook_mail":"","facebook_image":"","facebook_firstname":"","facebook_lastname":"","google_id":"","google_name":"","google_mail":"","google_image":"","google_token":"","facebook_token":"","token_created":"0","login_logout":"1","rating":"","user_delete":"0","unique_number":"","user_signup_type":"1","user_signup_date":"2017-09-28","status":"1","car_type_name":"HATCHBACK","car_name_arabic":"","car_type_name_french":"HATCHBACK","car_type_image":"uploads\/car\/editcar_2.png","cartype_image_size":"webstatic\/img\/fleet-image\/prime-play.png","ride_mode":"1","car_admin_status":"1","company_id":"0","commission":"4","driver_name":"ansh","driver_email":"ansh@gmail.com","driver_phone":"1231236963","driver_image":"","driver_password":"123456","driver_token":"gXrVKYUphvepFDPz","total_payment_eraned":"0","company_payment":"0","driver_payment":"","car_model_id":"3","car_number":"tahw718","city_id":"56","license":"","license_expire":"","rc":"","rc_expire":"","insurance":"","insurance_expire":"","other_docs":"","driver_bank_name":"","driver_account_number":"","total_card_payment":"0.00","total_cash_payment":"0.00","amount_transfer_pending":"0.00","current_lat":"28.4122124","current_long":"77.0431673","current_location":"----","last_update":"08:36","last_update_date":"Thursday, Sep 28, 2017","completed_rides":"0","reject_rides":"0","cancelled_rides":"0","busy":"1","online_offline":"1","detail_status":"2","payment_transfer":"0","verification_date":"2017-09-28","verification_status":"1","driver_signup_date":"2017-09-28","driver_status_image":"http:\/\/www.apporiotaxi.com\/superadminpanel\/images\/icons8-Error-80.png","driver_status_message":"your document id in under process, You will be notified very soon","total_document_need":"3","driver_admin_status":"1","verfiy_document":"3"}}
ride_id: 8
driver_id: 5
driver_token: gXrVKYUphvepFDPz
-------------------------
car by city api -: September 28, 2017, 8:38 am
Response: {"result":1,"msg":"Drop Location Change!!","details":{"ride_id":"8","user_id":"5","coupon_code":"","pickup_lat":"28.41206131561626","pickup_long":"77.0434596017003","pickup_location":"68, Plaza St, Block S, Uppal Southend, Sector 49, Gurugram, Haryana 122018, India","drop_lat":"28.4592693","drop_long":"77.0724192","drop_location":"Huda Metro Station","ride_date":"Thursday, Sep 28","ride_time":"08:36:41","last_time_stamp":"08:38:02 AM","ride_image":"https:maps.googleapis.com\/maps\/api\/staticmap?center=&zoom=12&size=200x200&maptype=roadmap&markers=color:green|label:S|28.41206131561626,77.0434596017003&markers=color:red|label:D|,&key=AIzaSyAIFe17P91Mfez3T6cqk7hfDSyvMO812Z4","later_date":"","later_time":"","driver_id":"5","car_type_id":"2","ride_type":"1","pem_file":"1","ride_status":"5","payment_status":"0","reason_id":"0","payment_option_id":"1","card_id":"0","ride_platform":"1","ride_admin_status":"1","date":"2017-09-28","user_type":"1","user_name":"pooja s .","user_email":"pooja@gmail.com","user_phone":"+915632569856","user_password":"123456","user_image":"","device_id":"","flag":"0","wallet_money":"0","register_date":"Thursday, Sep 28","referral_code":"","free_rides":"0","referral_code_send":"0","phone_verified":"0","email_verified":"0","password_created":"0","facebook_id":"","facebook_mail":"","facebook_image":"","facebook_firstname":"","facebook_lastname":"","google_id":"","google_name":"","google_mail":"","google_image":"","google_token":"","facebook_token":"","token_created":"0","login_logout":"0","rating":"","user_delete":"0","unique_number":"","user_signup_type":"1","user_signup_date":"2017-09-28","status":"1"}}
drop_lat: 28.4592693
drop_long: 77.0724192
drop_location: Huda Metro Station
app_id: 2
ride_id: 8
-------------------------
ride start to road  Api - : September 28, 2017, 8:38 am
ride_id :8
driver_id: 5
begin_lat: 28.4120258
begin_long: 77.0433247
driver_token: gXrVKYUphvepFDPz
-------------------------
ride end Api - : September 28, 2017, 8:38 am
ride_id: 8
driver_id: 5
end_lat: 28.4120258
end_long: 77.0433247
meter_distance: 0.0
lat_long: 
-------------------------
